{
  "project_info": {
    "project_number": "494486154063",
    "project_id": "steelpunk-44b1b",
    "storage_bucket": "steelpunk-44b1b.appspot.com"
  },
  "client": [
    {
      "client_info": {
        "mobilesdk_app_id": "1:494486154063:android:5e472e76192b40ee29b33a",
        "android_client_info": {
          "package_name": "com.LuLuGames.SteelPunk"
        }
      },
      "oauth_client": [
        {
          "client_id": "494486154063-uingchnaa0aa4mmkt2099disdfs7bke8.apps.googleusercontent.com",
          "client_type": 3
        }
      ],
      "api_key": [
        {
          "current_key": "AIzaSyBSObuB-ZpwxOg7m2bA3_q9GaODAHUtngA"
        }
      ],
      "services": {
        "appinvite_service": {
          "other_platform_oauth_client": [
            {
              "client_id": "494486154063-uingchnaa0aa4mmkt2099disdfs7bke8.apps.googleusercontent.com",
              "client_type": 3
            }
          ]
        }
      }
    }
  ],
  "configuration_version": "1"
}