%YAML 1.1
%TAG !u! tag:unity3d.com,2011:
--- !u!29 &1
OcclusionCullingSettings:
  m_ObjectHideFlags: 0
  serializedVersion: 2
  m_OcclusionBakeSettings:
    smallestOccluder: 5
    smallestHole: 0.25
    backfaceThreshold: 100
  m_SceneGUID: 00000000000000000000000000000000
  m_OcclusionCullingData: {fileID: 0}
--- !u!104 &2
RenderSettings:
  m_ObjectHideFlags: 0
  serializedVersion: 9
  m_Fog: 0
  m_FogColor: {r: 0.5, g: 0.5, b: 0.5, a: 1}
  m_FogMode: 3
  m_FogDensity: 0.01
  m_LinearFogStart: 0
  m_LinearFogEnd: 300
  m_AmbientSkyColor: {r: 0.212, g: 0.227, b: 0.259, a: 1}
  m_AmbientEquatorColor: {r: 0.114, g: 0.125, b: 0.133, a: 1}
  m_AmbientGroundColor: {r: 0.047, g: 0.043, b: 0.035, a: 1}
  m_AmbientIntensity: 1
  m_AmbientMode: 3
  m_SubtractiveShadowColor: {r: 0.42, g: 0.478, b: 0.627, a: 1}
  m_SkyboxMaterial: {fileID: 0}
  m_HaloStrength: 0.5
  m_FlareStrength: 1
  m_FlareFadeSpeed: 3
  m_HaloTexture: {fileID: 0}
  m_SpotCookie: {fileID: 10001, guid: 0000000000000000e000000000000000, type: 0}
  m_DefaultReflectionMode: 0
  m_DefaultReflectionResolution: 128
  m_ReflectionBounces: 1
  m_ReflectionIntensity: 1
  m_CustomReflection: {fileID: 0}
  m_Sun: {fileID: 0}
  m_IndirectSpecularColor: {r: 0, g: 0, b: 0, a: 1}
  m_UseRadianceAmbientProbe: 0
--- !u!157 &3
LightmapSettings:
  m_ObjectHideFlags: 0
  serializedVersion: 11
  m_GIWorkflowMode: 1
  m_GISettings:
    serializedVersion: 2
    m_BounceScale: 1
    m_IndirectOutputScale: 1
    m_AlbedoBoost: 1
    m_EnvironmentLightingMode: 0
    m_EnableBakedLightmaps: 0
    m_EnableRealtimeLightmaps: 0
  m_LightmapEditorSettings:
    serializedVersion: 12
    m_Resolution: 2
    m_BakeResolution: 40
    m_AtlasSize: 1024
    m_AO: 0
    m_AOMaxDistance: 1
    m_CompAOExponent: 1
    m_CompAOExponentDirect: 0
    m_ExtractAmbientOcclusion: 0
    m_Padding: 2
    m_LightmapParameters: {fileID: 0}
    m_LightmapsBakeMode: 1
    m_TextureCompression: 1
    m_FinalGather: 0
    m_FinalGatherFiltering: 1
    m_FinalGatherRayCount: 256
    m_ReflectionCompression: 2
    m_MixedBakeMode: 2
    m_BakeBackend: 0
    m_PVRSampling: 1
    m_PVRDirectSampleCount: 32
    m_PVRSampleCount: 500
    m_PVRBounces: 2
    m_PVREnvironmentSampleCount: 500
    m_PVREnvironmentReferencePointCount: 2048
    m_PVRFilteringMode: 2
    m_PVRDenoiserTypeDirect: 0
    m_PVRDenoiserTypeIndirect: 0
    m_PVRDenoiserTypeAO: 0
    m_PVRFilterTypeDirect: 0
    m_PVRFilterTypeIndirect: 0
    m_PVRFilterTypeAO: 0
    m_PVREnvironmentMIS: 0
    m_PVRCulling: 1
    m_PVRFilteringGaussRadiusDirect: 1
    m_PVRFilteringGaussRadiusIndirect: 5
    m_PVRFilteringGaussRadiusAO: 2
    m_PVRFilteringAtrousPositionSigmaDirect: 0.5
    m_PVRFilteringAtrousPositionSigmaIndirect: 2
    m_PVRFilteringAtrousPositionSigmaAO: 1
    m_ExportTrainingData: 0
    m_TrainingDataDestination: TrainingData
    m_LightProbeSampleCountMultiplier: 4
  m_LightingDataAsset: {fileID: 0}
  m_UseShadowmask: 1
--- !u!196 &4
NavMeshSettings:
  serializedVersion: 2
  m_ObjectHideFlags: 0
  m_BuildSettings:
    serializedVersion: 2
    agentTypeID: 0
    agentRadius: 0.5
    agentHeight: 2
    agentSlope: 45
    agentClimb: 0.4
    ledgeDropHeight: 0
    maxJumpAcrossDistance: 0
    minRegionArea: 2
    manualCellSize: 0
    cellSize: 0.16666667
    manualTileSize: 0
    tileSize: 256
    accuratePlacement: 0
    debug:
      m_Flags: 0
  m_NavMeshData: {fileID: 0}
--- !u!1 &412796122
GameObject:
  m_ObjectHideFlags: 0
  m_CorrespondingSourceObject: {fileID: 0}
  m_PrefabInstance: {fileID: 0}
  m_PrefabAsset: {fileID: 0}
  serializedVersion: 6
  m_Component:
  - component: {fileID: 412796125}
  - component: {fileID: 412796124}
  - component: {fileID: 412796123}
  m_Layer: 0
  m_Name: Camera
  m_TagString: Untagged
  m_Icon: {fileID: 0}
  m_NavMeshLayer: 0
  m_StaticEditorFlags: 0
  m_IsActive: 1
--- !u!81 &412796123
AudioListener:
  m_ObjectHideFlags: 0
  m_CorrespondingSourceObject: {fileID: 0}
  m_PrefabInstance: {fileID: 0}
  m_PrefabAsset: {fileID: 0}
  m_GameObject: {fileID: 412796122}
  m_Enabled: 1
--- !u!20 &412796124
Camera:
  m_ObjectHideFlags: 0
  m_CorrespondingSourceObject: {fileID: 0}
  m_PrefabInstance: {fileID: 0}
  m_PrefabAsset: {fileID: 0}
  m_GameObject: {fileID: 412796122}
  m_Enabled: 1
  serializedVersion: 2
  m_ClearFlags: 1
  m_BackGroundColor: {r: 0.19215687, g: 0.3019608, b: 0.4745098, a: 0}
  m_projectionMatrixMode: 1
  m_GateFitMode: 2
  m_FOVAxisMode: 0
  m_SensorSize: {x: 36, y: 24}
  m_LensShift: {x: 0, y: 0}
  m_FocalLength: 50
  m_NormalizedViewPortRect:
    serializedVersion: 2
    x: 0
    y: 0
    width: 1
    height: 1
  near clip plane: 0.3
  far clip plane: 1000
  field of view: 1.8868893
  orthographic: 0
  orthographic size: 5
  m_Depth: 0
  m_CullingMask:
    serializedVersion: 2
    m_Bits: 4294967295
  m_RenderingPath: -1
  m_TargetTexture: {fileID: 0}
  m_TargetDisplay: 0
  m_TargetEye: 3
  m_HDR: 1
  m_AllowMSAA: 1
  m_AllowDynamicResolution: 0
  m_ForceIntoRT: 0
  m_OcclusionCulling: 1
  m_StereoConvergence: 10
  m_StereoSeparation: 0.022
--- !u!4 &412796125
Transform:
  m_ObjectHideFlags: 0
  m_CorrespondingSourceObject: {fileID: 0}
  m_PrefabInstance: {fileID: 0}
  m_PrefabAsset: {fileID: 0}
  m_GameObject: {fileID: 412796122}
  m_LocalRotation: {x: 0, y: 0, z: 0, w: 1}
  m_LocalPosition: {x: 35, y: -13.24, z: -423.40625}
  m_LocalScale: {x: 0.29591653, y: 0.33093622, z: 0.14007884}
  m_Children: []
  m_Father: {fileID: 0}
  m_RootOrder: 7
  m_LocalEulerAnglesHint: {x: 0, y: 0, z: 0}
--- !u!1001 &1317781636014417968
PrefabInstance:
  m_ObjectHideFlags: 0
  serializedVersion: 2
  m_Modification:
    m_TransformParent: {fileID: 0}
    m_Modifications:
    - target: {fileID: 1997674986248921098, guid: 90e3046f0064eed489002d1e7aabf9e4,
        type: 3}
      propertyPath: m_LocalPosition.x
      value: -5.24
      objectReference: {fileID: 0}
    - target: {fileID: 1997674986248921098, guid: 90e3046f0064eed489002d1e7aabf9e4,
        type: 3}
      propertyPath: m_LocalPosition.y
      value: 14.38
      objectReference: {fileID: 0}
    - target: {fileID: 1997674986248921098, guid: 90e3046f0064eed489002d1e7aabf9e4,
        type: 3}
      propertyPath: m_LocalPosition.z
      value: 0
      objectReference: {fileID: 0}
    - target: {fileID: 1997674986248921098, guid: 90e3046f0064eed489002d1e7aabf9e4,
        type: 3}
      propertyPath: m_LocalRotation.x
      value: 0
      objectReference: {fileID: 0}
    - target: {fileID: 1997674986248921098, guid: 90e3046f0064eed489002d1e7aabf9e4,
        type: 3}
      propertyPath: m_LocalRotation.y
      value: 0
      objectReference: {fileID: 0}
    - target: {fileID: 1997674986248921098, guid: 90e3046f0064eed489002d1e7aabf9e4,
        type: 3}
      propertyPath: m_LocalRotation.z
      value: 0
      objectReference: {fileID: 0}
    - target: {fileID: 1997674986248921098, guid: 90e3046f0064eed489002d1e7aabf9e4,
        type: 3}
      propertyPath: m_LocalRotation.w
      value: 1
      objectReference: {fileID: 0}
    - target: {fileID: 1997674986248921098, guid: 90e3046f0064eed489002d1e7aabf9e4,
        type: 3}
      propertyPath: m_RootOrder
      value: 0
      objectReference: {fileID: 0}
    - target: {fileID: 1997674986248921098, guid: 90e3046f0064eed489002d1e7aabf9e4,
        type: 3}
      propertyPath: m_LocalEulerAnglesHint.x
      value: 0
      objectReference: {fileID: 0}
    - target: {fileID: 1997674986248921098, guid: 90e3046f0064eed489002d1e7aabf9e4,
        type: 3}
      propertyPath: m_LocalEulerAnglesHint.y
      value: 0
      objectReference: {fileID: 0}
    - target: {fileID: 1997674986248921098, guid: 90e3046f0064eed489002d1e7aabf9e4,
        type: 3}
      propertyPath: m_LocalEulerAnglesHint.z
      value: 0
      objectReference: {fileID: 0}
    - target: {fileID: 6613781429389343447, guid: 90e3046f0064eed489002d1e7aabf9e4,
        type: 3}
      propertyPath: m_Name
      value: 1.sopo01
      objectReference: {fileID: 0}
    m_RemovedComponents: []
  m_SourcePrefab: {fileID: 100100000, guid: 90e3046f0064eed489002d1e7aabf9e4, type: 3}
--- !u!1001 &1505986932110168670
PrefabInstance:
  m_ObjectHideFlags: 0
  serializedVersion: 2
  m_Modification:
    m_TransformParent: {fileID: 0}
    m_Modifications:
    - target: {fileID: 1693447591465310024, guid: 17cd8a4e0af746e4c8ba38a5023bfeb0,
        type: 3}
      propertyPath: m_Name
      value: 4.bomber02
      objectReference: {fileID: 0}
    - target: {fileID: 4588774040253952658, guid: 17cd8a4e0af746e4c8ba38a5023bfeb0,
        type: 3}
      propertyPath: m_LocalPosition.x
      value: -25.530994
      objectReference: {fileID: 0}
    - target: {fileID: 4588774040253952658, guid: 17cd8a4e0af746e4c8ba38a5023bfeb0,
        type: 3}
      propertyPath: m_LocalPosition.y
      value: -24.12
      objectReference: {fileID: 0}
    - target: {fileID: 4588774040253952658, guid: 17cd8a4e0af746e4c8ba38a5023bfeb0,
        type: 3}
      propertyPath: m_LocalPosition.z
      value: 0
      objectReference: {fileID: 0}
    - target: {fileID: 4588774040253952658, guid: 17cd8a4e0af746e4c8ba38a5023bfeb0,
        type: 3}
      propertyPath: m_LocalRotation.x
      value: 0
      objectReference: {fileID: 0}
    - target: {fileID: 4588774040253952658, guid: 17cd8a4e0af746e4c8ba38a5023bfeb0,
        type: 3}
      propertyPath: m_LocalRotation.y
      value: 0
      objectReference: {fileID: 0}
    - target: {fileID: 4588774040253952658, guid: 17cd8a4e0af746e4c8ba38a5023bfeb0,
        type: 3}
      propertyPath: m_LocalRotation.z
      value: 0
      objectReference: {fileID: 0}
    - target: {fileID: 4588774040253952658, guid: 17cd8a4e0af746e4c8ba38a5023bfeb0,
        type: 3}
      propertyPath: m_LocalRotation.w
      value: 1
      objectReference: {fileID: 0}
    - target: {fileID: 4588774040253952658, guid: 17cd8a4e0af746e4c8ba38a5023bfeb0,
        type: 3}
      propertyPath: m_RootOrder
      value: 2
      objectReference: {fileID: 0}
    - target: {fileID: 4588774040253952658, guid: 17cd8a4e0af746e4c8ba38a5023bfeb0,
        type: 3}
      propertyPath: m_LocalEulerAnglesHint.x
      value: 0
      objectReference: {fileID: 0}
    - target: {fileID: 4588774040253952658, guid: 17cd8a4e0af746e4c8ba38a5023bfeb0,
        type: 3}
      propertyPath: m_LocalEulerAnglesHint.y
      value: 0
      objectReference: {fileID: 0}
    - target: {fileID: 4588774040253952658, guid: 17cd8a4e0af746e4c8ba38a5023bfeb0,
        type: 3}
      propertyPath: m_LocalEulerAnglesHint.z
      value: 0
      objectReference: {fileID: 0}
    m_RemovedComponents: []
  m_SourcePrefab: {fileID: 100100000, guid: 17cd8a4e0af746e4c8ba38a5023bfeb0, type: 3}
--- !u!1001 &3600884322022790202
PrefabInstance:
  m_ObjectHideFlags: 0
  serializedVersion: 2
  m_Modification:
    m_TransformParent: {fileID: 0}
    m_Modifications:
    - target: {fileID: 7557967030075817815, guid: 1efd667f27799c44bb88e0765e274660,
        type: 3}
      propertyPath: m_LocalPosition.x
      value: 18.02909
      objectReference: {fileID: 0}
    - target: {fileID: 7557967030075817815, guid: 1efd667f27799c44bb88e0765e274660,
        type: 3}
      propertyPath: m_LocalPosition.y
      value: -6.53
      objectReference: {fileID: 0}
    - target: {fileID: 7557967030075817815, guid: 1efd667f27799c44bb88e0765e274660,
        type: 3}
      propertyPath: m_LocalPosition.z
      value: 0
      objectReference: {fileID: 0}
    - target: {fileID: 7557967030075817815, guid: 1efd667f27799c44bb88e0765e274660,
        type: 3}
      propertyPath: m_LocalRotation.x
      value: 0
      objectReference: {fileID: 0}
    - target: {fileID: 7557967030075817815, guid: 1efd667f27799c44bb88e0765e274660,
        type: 3}
      propertyPath: m_LocalRotation.y
      value: 0
      objectReference: {fileID: 0}
    - target: {fileID: 7557967030075817815, guid: 1efd667f27799c44bb88e0765e274660,
        type: 3}
      propertyPath: m_LocalRotation.z
      value: 0
      objectReference: {fileID: 0}
    - target: {fileID: 7557967030075817815, guid: 1efd667f27799c44bb88e0765e274660,
        type: 3}
      propertyPath: m_LocalRotation.w
      value: 1
      objectReference: {fileID: 0}
    - target: {fileID: 7557967030075817815, guid: 1efd667f27799c44bb88e0765e274660,
        type: 3}
      propertyPath: m_RootOrder
      value: 6
      objectReference: {fileID: 0}
    - target: {fileID: 7557967030075817815, guid: 1efd667f27799c44bb88e0765e274660,
        type: 3}
      propertyPath: m_LocalEulerAnglesHint.x
      value: 0
      objectReference: {fileID: 0}
    - target: {fileID: 7557967030075817815, guid: 1efd667f27799c44bb88e0765e274660,
        type: 3}
      propertyPath: m_LocalEulerAnglesHint.y
      value: 0
      objectReference: {fileID: 0}
    - target: {fileID: 7557967030075817815, guid: 1efd667f27799c44bb88e0765e274660,
        type: 3}
      propertyPath: m_LocalEulerAnglesHint.z
      value: 0
      objectReference: {fileID: 0}
    - target: {fileID: 9054348332367913824, guid: 1efd667f27799c44bb88e0765e274660,
        type: 3}
      propertyPath: m_Name
      value: 5.sniper01
      objectReference: {fileID: 0}
    m_RemovedComponents: []
  m_SourcePrefab: {fileID: 100100000, guid: 1efd667f27799c44bb88e0765e274660, type: 3}
--- !u!1001 &4223252068616214026
PrefabInstance:
  m_ObjectHideFlags: 0
  serializedVersion: 2
  m_Modification:
    m_TransformParent: {fileID: 0}
    m_Modifications:
    - target: {fileID: 186555190132869284, guid: c6e02c901d7e46b40a392be3746d954d,
        type: 3}
      propertyPath: m_Name
      value: 6.ninja01
      objectReference: {fileID: 0}
    - target: {fileID: 8133081297198349477, guid: c6e02c901d7e46b40a392be3746d954d,
        type: 3}
      propertyPath: m_LocalPosition.x
      value: 33.943462
      objectReference: {fileID: 0}
    - target: {fileID: 8133081297198349477, guid: c6e02c901d7e46b40a392be3746d954d,
        type: 3}
      propertyPath: m_LocalPosition.y
      value: -23.95968
      objectReference: {fileID: 0}
    - target: {fileID: 8133081297198349477, guid: c6e02c901d7e46b40a392be3746d954d,
        type: 3}
      propertyPath: m_LocalPosition.z
      value: 0
      objectReference: {fileID: 0}
    - target: {fileID: 8133081297198349477, guid: c6e02c901d7e46b40a392be3746d954d,
        type: 3}
      propertyPath: m_LocalRotation.x
      value: 0
      objectReference: {fileID: 0}
    - target: {fileID: 8133081297198349477, guid: c6e02c901d7e46b40a392be3746d954d,
        type: 3}
      propertyPath: m_LocalRotation.y
      value: 0
      objectReference: {fileID: 0}
    - target: {fileID: 8133081297198349477, guid: c6e02c901d7e46b40a392be3746d954d,
        type: 3}
      propertyPath: m_LocalRotation.z
      value: 0
      objectReference: {fileID: 0}
    - target: {fileID: 8133081297198349477, guid: c6e02c901d7e46b40a392be3746d954d,
        type: 3}
      propertyPath: m_LocalRotation.w
      value: 1
      objectReference: {fileID: 0}
    - target: {fileID: 8133081297198349477, guid: c6e02c901d7e46b40a392be3746d954d,
        type: 3}
      propertyPath: m_RootOrder
      value: 4
      objectReference: {fileID: 0}
    - target: {fileID: 8133081297198349477, guid: c6e02c901d7e46b40a392be3746d954d,
        type: 3}
      propertyPath: m_LocalEulerAnglesHint.x
      value: 0
      objectReference: {fileID: 0}
    - target: {fileID: 8133081297198349477, guid: c6e02c901d7e46b40a392be3746d954d,
        type: 3}
      propertyPath: m_LocalEulerAnglesHint.y
      value: 0
      objectReference: {fileID: 0}
    - target: {fileID: 8133081297198349477, guid: c6e02c901d7e46b40a392be3746d954d,
        type: 3}
      propertyPath: m_LocalEulerAnglesHint.z
      value: 0
      objectReference: {fileID: 0}
    m_RemovedComponents: []
  m_SourcePrefab: {fileID: 100100000, guid: c6e02c901d7e46b40a392be3746d954d, type: 3}
--- !u!1001 &5538116799810325081
PrefabInstance:
  m_ObjectHideFlags: 0
  serializedVersion: 2
  m_Modification:
    m_TransformParent: {fileID: 0}
    m_Modifications:
    - target: {fileID: 2398869137321923624, guid: a2400d809a75a5b41a14123565749034,
        type: 3}
      propertyPath: m_Name
      value: 7.wizard01
      objectReference: {fileID: 0}
    - target: {fileID: 7111862118825514905, guid: a2400d809a75a5b41a14123565749034,
        type: 3}
      propertyPath: m_LocalPosition.x
      value: -26.641022
      objectReference: {fileID: 0}
    - target: {fileID: 7111862118825514905, guid: a2400d809a75a5b41a14123565749034,
        type: 3}
      propertyPath: m_LocalPosition.y
      value: -2.412734
      objectReference: {fileID: 0}
    - target: {fileID: 7111862118825514905, guid: a2400d809a75a5b41a14123565749034,
        type: 3}
      propertyPath: m_LocalPosition.z
      value: 0
      objectReference: {fileID: 0}
    - target: {fileID: 7111862118825514905, guid: a2400d809a75a5b41a14123565749034,
        type: 3}
      propertyPath: m_LocalRotation.x
      value: 0
      objectReference: {fileID: 0}
    - target: {fileID: 7111862118825514905, guid: a2400d809a75a5b41a14123565749034,
        type: 3}
      propertyPath: m_LocalRotation.y
      value: 0
      objectReference: {fileID: 0}
    - target: {fileID: 7111862118825514905, guid: a2400d809a75a5b41a14123565749034,
        type: 3}
      propertyPath: m_LocalRotation.z
      value: 0
      objectReference: {fileID: 0}
    - target: {fileID: 7111862118825514905, guid: a2400d809a75a5b41a14123565749034,
        type: 3}
      propertyPath: m_LocalRotation.w
      value: 1
      objectReference: {fileID: 0}
    - target: {fileID: 7111862118825514905, guid: a2400d809a75a5b41a14123565749034,
        type: 3}
      propertyPath: m_RootOrder
      value: 1
      objectReference: {fileID: 0}
    - target: {fileID: 7111862118825514905, guid: a2400d809a75a5b41a14123565749034,
        type: 3}
      propertyPath: m_LocalEulerAnglesHint.x
      value: 0
      objectReference: {fileID: 0}
    - target: {fileID: 7111862118825514905, guid: a2400d809a75a5b41a14123565749034,
        type: 3}
      propertyPath: m_LocalEulerAnglesHint.y
      value: 0
      objectReference: {fileID: 0}
    - target: {fileID: 7111862118825514905, guid: a2400d809a75a5b41a14123565749034,
        type: 3}
      propertyPath: m_LocalEulerAnglesHint.z
      value: 0
      objectReference: {fileID: 0}
    m_RemovedComponents: []
  m_SourcePrefab: {fileID: 100100000, guid: a2400d809a75a5b41a14123565749034, type: 3}
--- !u!1001 &5848793579468032430
PrefabInstance:
  m_ObjectHideFlags: 0
  serializedVersion: 2
  m_Modification:
    m_TransformParent: {fileID: 0}
    m_Modifications:
    - target: {fileID: 4820326618525936476, guid: ef8ad146d15f37c4591b29205f7d06f8,
        type: 3}
      propertyPath: m_Name
      value: 2.tank01
      objectReference: {fileID: 0}
    - target: {fileID: 8930263380285668915, guid: ef8ad146d15f37c4591b29205f7d06f8,
        type: 3}
      propertyPath: m_LocalPosition.x
      value: -1.243731
      objectReference: {fileID: 0}
    - target: {fileID: 8930263380285668915, guid: ef8ad146d15f37c4591b29205f7d06f8,
        type: 3}
      propertyPath: m_LocalPosition.y
      value: -23.4
      objectReference: {fileID: 0}
    - target: {fileID: 8930263380285668915, guid: ef8ad146d15f37c4591b29205f7d06f8,
        type: 3}
      propertyPath: m_LocalPosition.z
      value: 0
      objectReference: {fileID: 0}
    - target: {fileID: 8930263380285668915, guid: ef8ad146d15f37c4591b29205f7d06f8,
        type: 3}
      propertyPath: m_LocalRotation.x
      value: 0
      objectReference: {fileID: 0}
    - target: {fileID: 8930263380285668915, guid: ef8ad146d15f37c4591b29205f7d06f8,
        type: 3}
      propertyPath: m_LocalRotation.y
      value: 0
      objectReference: {fileID: 0}
    - target: {fileID: 8930263380285668915, guid: ef8ad146d15f37c4591b29205f7d06f8,
        type: 3}
      propertyPath: m_LocalRotation.z
      value: 0
      objectReference: {fileID: 0}
    - target: {fileID: 8930263380285668915, guid: ef8ad146d15f37c4591b29205f7d06f8,
        type: 3}
      propertyPath: m_LocalRotation.w
      value: 1
      objectReference: {fileID: 0}
    - target: {fileID: 8930263380285668915, guid: ef8ad146d15f37c4591b29205f7d06f8,
        type: 3}
      propertyPath: m_RootOrder
      value: 3
      objectReference: {fileID: 0}
    - target: {fileID: 8930263380285668915, guid: ef8ad146d15f37c4591b29205f7d06f8,
        type: 3}
      propertyPath: m_LocalEulerAnglesHint.x
      value: 0
      objectReference: {fileID: 0}
    - target: {fileID: 8930263380285668915, guid: ef8ad146d15f37c4591b29205f7d06f8,
        type: 3}
      propertyPath: m_LocalEulerAnglesHint.y
      value: 0
      objectReference: {fileID: 0}
    - target: {fileID: 8930263380285668915, guid: ef8ad146d15f37c4591b29205f7d06f8,
        type: 3}
      propertyPath: m_LocalEulerAnglesHint.z
      value: 0
      objectReference: {fileID: 0}
    m_RemovedComponents: []
  m_SourcePrefab: {fileID: 100100000, guid: ef8ad146d15f37c4591b29205f7d06f8, type: 3}
--- !u!1001 &7855980717105121610
PrefabInstance:
  m_ObjectHideFlags: 0
  serializedVersion: 2
  m_Modification:
    m_TransformParent: {fileID: 0}
    m_Modifications:
    - target: {fileID: 1371415158242767548, guid: e80857f924c9a4a41b92abb954cc743c,
        type: 3}
      propertyPath: m_Name
      value: 3.cop01
      objectReference: {fileID: 0}
    - target: {fileID: 8191970068988835596, guid: e80857f924c9a4a41b92abb954cc743c,
        type: 3}
      propertyPath: m_LocalPosition.x
      value: -42.8
      objectReference: {fileID: 0}
    - target: {fileID: 8191970068988835596, guid: e80857f924c9a4a41b92abb954cc743c,
        type: 3}
      propertyPath: m_LocalPosition.y
      value: -26.07
      objectReference: {fileID: 0}
    - target: {fileID: 8191970068988835596, guid: e80857f924c9a4a41b92abb954cc743c,
        type: 3}
      propertyPath: m_LocalPosition.z
      value: 0
      objectReference: {fileID: 0}
    - target: {fileID: 8191970068988835596, guid: e80857f924c9a4a41b92abb954cc743c,
        type: 3}
      propertyPath: m_LocalRotation.x
      value: 0
      objectReference: {fileID: 0}
    - target: {fileID: 8191970068988835596, guid: e80857f924c9a4a41b92abb954cc743c,
        type: 3}
      propertyPath: m_LocalRotation.y
      value: 0
      objectReference: {fileID: 0}
    - target: {fileID: 8191970068988835596, guid: e80857f924c9a4a41b92abb954cc743c,
        type: 3}
      propertyPath: m_LocalRotation.z
      value: 0
      objectReference: {fileID: 0}
    - target: {fileID: 8191970068988835596, guid: e80857f924c9a4a41b92abb954cc743c,
        type: 3}
      propertyPath: m_LocalRotation.w
      value: 1
      objectReference: {fileID: 0}
    - target: {fileID: 8191970068988835596, guid: e80857f924c9a4a41b92abb954cc743c,
        type: 3}
      propertyPath: m_RootOrder
      value: 5
      objectReference: {fileID: 0}
    - target: {fileID: 8191970068988835596, guid: e80857f924c9a4a41b92abb954cc743c,
        type: 3}
      propertyPath: m_LocalEulerAnglesHint.x
      value: 0
      objectReference: {fileID: 0}
    - target: {fileID: 8191970068988835596, guid: e80857f924c9a4a41b92abb954cc743c,
        type: 3}
      propertyPath: m_LocalEulerAnglesHint.y
      value: 0
      objectReference: {fileID: 0}
    - target: {fileID: 8191970068988835596, guid: e80857f924c9a4a41b92abb954cc743c,
        type: 3}
      propertyPath: m_LocalEulerAnglesHint.z
      value: 0
      objectReference: {fileID: 0}
    m_RemovedComponents: []
  m_SourcePrefab: {fileID: 100100000, guid: e80857f924c9a4a41b92abb954cc743c, type: 3}
