%YAML 1.1
%TAG !u! tag:unity3d.com,2011:
--- !u!221 &22100000
AnimatorOverrideController:
  m_ObjectHideFlags: 0
  m_CorrespondingSourceObject: {fileID: 0}
  m_PrefabInstance: {fileID: 0}
  m_PrefabAsset: {fileID: 0}
  m_Name: Tank
  m_Controller: {fileID: 9100000, guid: 9aed0c94950e5484b87215a461f71b3e, type: 2}
  m_Clips:
  - m_OriginalClip: {fileID: 7400000, guid: 4a7effa40f4c5c04d841f936011f3cae, type: 2}
    m_OverrideClip: {fileID: 7400000, guid: 136af5cea925f11409091517e4bc7120, type: 2}
  - m_OriginalClip: {fileID: 7400000, guid: 3710970eca86dab43b4409415e70d298, type: 2}
    m_OverrideClip: {fileID: 7400000, guid: 7170985553a5d4e4ba46e0fbe74f594d, type: 2}
  - m_OriginalClip: {fileID: 7400000, guid: 262ac3fcf280fea4491dace32598dc24, type: 2}
    m_OverrideClip: {fileID: 7400000, guid: 75fb589c51ff9c040a050ac54609366c, type: 2}
  - m_OriginalClip: {fileID: 7400000, guid: c25a155cd9047f24cabecfb56a369b78, type: 2}
    m_OverrideClip: {fileID: 7400000, guid: 100911dba72372f449204166b69aaa39, type: 2}
