%YAML 1.1
%TAG !u! tag:unity3d.com,2011:
--- !u!221 &22100000
AnimatorOverrideController:
  m_ObjectHideFlags: 0
  m_CorrespondingSourceObject: {fileID: 0}
  m_PrefabInstance: {fileID: 0}
  m_PrefabAsset: {fileID: 0}
  m_Name: Spawner
  m_Controller: {fileID: 9100000, guid: a9159094b20e70f44b786f4649ebb967, type: 2}
  m_Clips:
  - m_OriginalClip: {fileID: 7400000, guid: 085b5b6091c34df40b101bde4f6becd4, type: 2}
    m_OverrideClip: {fileID: 7400000, guid: 30901b1ebac2499448348d7b836002b6, type: 2}
  - m_OriginalClip: {fileID: 7400000, guid: 70eb0a4349ae985449f6cccaed79d7bf, type: 2}
    m_OverrideClip: {fileID: 7400000, guid: 3bbbad19660a8f1478f90d8d2dd7ab17, type: 2}
  - m_OriginalClip: {fileID: 7400000, guid: f62e35c8e27e65046ac9d558d1d52afc, type: 2}
    m_OverrideClip: {fileID: 7400000, guid: 7e1ee43850499174db114c25c135ec22, type: 2}
