%YAML 1.1
%TAG !u! tag:unity3d.com,2011:
--- !u!114 &11400000
MonoBehaviour:
  m_ObjectHideFlags: 0
  m_CorrespondingSourceObject: {fileID: 0}
  m_PrefabInstance: {fileID: 0}
  m_PrefabAsset: {fileID: 0}
  m_GameObject: {fileID: 0}
  m_Enabled: 1
  m_EditorHideFlags: 0
  m_Script: {fileID: 11500000, guid: 16a9d3283b88e4c4eb2d9be92478e526, type: 3}
  m_Name: BaseGunSpriteHolder
  m_EditorClassIdentifier: 
  baseGunSprites:
  - baseGunType: 0
    gunSprite: {fileID: 0}
