%YAML 1.1
%TAG !u! tag:unity3d.com,2011:
--- !u!114 &11400000
MonoBehaviour:
  m_ObjectHideFlags: 0
  m_CorrespondingSourceObject: {fileID: 0}
  m_PrefabInstance: {fileID: 0}
  m_PrefabAsset: {fileID: 0}
  m_GameObject: {fileID: 0}
  m_Enabled: 1
  m_EditorHideFlags: 0
  m_Script: {fileID: 11500000, guid: 2b630aa043ae4b18aeff52dd0e9d6a27, type: 3}
  m_Name: PrefabHolderAsset
  m_EditorClassIdentifier: 
  cards:
  - soldierType: 1
    prefab:
    - {fileID: 2749387463346434232, guid: c3831ea387a9a424da479e0f24e5746e, type: 3}
  - soldierType: 2
    prefab:
    - {fileID: 399646322112517256, guid: 3fe60ccd742e5e24092bcaefdb5ad243, type: 3}
  - soldierType: 3
    prefab:
    - {fileID: -2092975564150903842, guid: 3a5f4954ed0cc9e48915c2476fbca043, type: 3}
  - soldierType: 4
    prefab:
    - {fileID: -8902677228925532284, guid: 4ad7a90dd1034f04c88c0b01c07775e1, type: 3}
  - soldierType: 5
    prefab:
    - {fileID: 6175683595012993041, guid: 80cce2149db1f6f46907de035e430c8e, type: 3}
  - soldierType: 6
    prefab:
    - {fileID: 2036717404202280449, guid: 141f951a706377b438e1329d634b454f, type: 3}
  - soldierType: 7
    prefab:
    - {fileID: 2799700325273708340, guid: 925e3b6fd87076f44b9fbcb46b79f0fe, type: 3}
